================================================
1.ネットワークでのデータのやり取り
================================================

データ伝送方式
========================


1.ビット
情報はビットの形の信号で送られる

2.パラレル伝送
複数の信号を並列で送信する。

3.シリアル伝送
一つの信号のみを送信する（現在の主流）




パケット交換方式
================

* 現在のネットワークではパケット交換方式で情報がやりとりされる。
* パケットと呼ばれる小さな単位でデータを送信する。
* 送信先を判別されるデータを付加されパケット交換機（ルーター）に送信される。
* 同時に複数の宛先とやり取りすることが可能
* 回線の専有時間が短い



================================================
2.ネットワークの構成要素
================================================

用語
======
---------
ホスト
---------
パソコン、スマホ、プリンタなどのデータを送受信する機器

---------
回線
---------
ホストとホストを結ぶための通信ケーブル（有線）や、無線

--------------
インターフェイス
--------------
ホストと回線をつなぐ機器 >> LANカード(有線)や無線LAN子機、無線LANカードなど
* インターフェイスはデータをビットの信号として送受信する。

--------------
パケット交換機
--------------
ルーター

------------------
インターネット接続事業者
------------------
プロバイダー(ISP)のこと。
個人は、ISPと契約して自宅のルーターをISPのルーターとつなげることで、ISPのASの一部となり、
インターネットに接続できるようになる。

---------------
自立システム(AS)
---------------
-Autonomous System
様々な研究機関や企業LAN及び、それらがつながったWANや、ISPの独自ネットワーク
これらのネットワークあるいはネットワーク郡の総称

------------------------------
Internet Exchange(IX)
------------------------------
AS同士をつなぐ相互接続ポイント

------------------
インターネット
------------------
IXでつながったASのネットワーク郡のこと



ネットワーク内の機器をつなげる
=========================
----------------------------
1.point-to-pointネットワーク方式
----------------------------
ホスト to ホスト
ホスト to ルーター
ルーター to ルーター
など、機器同士を1対1でつなげる方式

-------------------------------------
2.multiple-accessネットワーク方式
-------------------------------------
複数のホストやルーターを１つの回線でつなげる方式




================================================
3.パケット分割について
================================================

用語
======
---------
プロトコル
---------
ビット信号の変換方式や、ビット信号の形、宛先の識別方など、ネットワークでデータを正しく送受信するための約束事
正しくデータをやり取りするためには、送信ホスト、ルーター、宛先ホストがすべて同じプロトコルに基づいて動いていないといけない

プロトコルは各レイヤーごとにそこでの作業のルールを決めている。
1.カプセル化
	>>宛先や送信元を特定する値や、データの中身を表す値などを設定する。
2.通信をどのように行うか
	>>データ受信時に送信元に通知するかや、送信元と宛先を特定する値をド載ようなフォーマットにするかなどを決める


------------------
プロトコルスイート
------------------
同じ設計思想で作られたお約束の集まり、つまりプロトコル群のこと。

--------------
TCP/IPプロトコル
--------------
インターネット・プロトコル（IP）と同じ設計思想で作られたプロトコルスイート。
現在のネットワークで使用されている、最も標準的なプロトコルスイート。
インターネット上ではTCP/IPプロトコル以外を使っている機器とはデータをやり取りできない。



--------------
パケットの伝送
--------------
送信側ホスト >> データをパケットに分割
↓
送信側ホストのインターフェイス >> パケットを信号に変換
↓
パケット交換機A >> 信号をパケットに戻して宛先を確認。
↓
パケット交換機A >> 適切なパケット交換機を選び、パケットを信号に変換
↓
パケット交換機B >> 信号をパケットに戻して宛先を確認。
↓
パケット交換機B >> 適切なパケット交換機を選び、パケットを信号に変換
↓
宛先ホスト


========================================================
4.ネットワークモデル
========================================================


用語
=============

------------------------------
カプセル化・デカプセル化
------------------------------
各レイヤーごとに必要な**データ伝送用のデータ**を付加すること。
また、逆に付加されている**データ伝送用のデータ**を取り外していくこと
1.宛先や送信元を特定する値
2.エラーチェック用のデータ
3.データの中身を識別する値

------------------------------
PDU(Protocol Data Unit)
------------------------------
ヘッダーやトレーラーが付加されたデータの呼称
レイヤー3PDUというような使い方をする。



OSI参照モデル
===============

----------------------
レイヤー7　アプリケーション層
----------------------
ユーザーにネットワークサービスを提供する

----------------------
レイヤー6　プレゼンテーション層
----------------------
データの形式を決定する

----------------------
レイヤー5　セッション層
----------------------
データのやり取りの順序などを管理する

----------------------
レイヤー4　トランスポート層
----------------------
信頼性の高い（エラーの少ない）伝送を行う
ヘッダーを付加→セグメント


----------------------
レイヤー3　ネットワーク層
----------------------
中継や宛先の決定を行う
ヘッダーを付加→データグラム

----------------------
レイヤー2　データリンク層
----------------------
隣接機器へのデータの伝送を制御する
ヘッダーとトレーラーを付加→フレーム

----------------------
レイヤー1　物理層
----------------------
電気・機械的な部分の伝送を行う



TCP/IPモデル.TCP/IPプロトコルスイート
====================================

----------------------
レイヤー4　アプリケーション層
----------------------
レイヤー7~5
HTTP,FTP,DNS,TELNET,SMTP,POP,IMAP,SNMP

----------------------
レイヤー3　トランスポート層
----------------------
レイヤー4
TCP(Transmission Control Protocol)

----------------------
レイヤー2　インターネット層
----------------------
レイヤー3
IP(Internet Protocol)


----------------------
レイヤー1　アクセス層
----------------------
レイヤー2~1
LANやWANの規格で任意のもの（最近だとイーサネット）

--------------------------------------------------------------------------------------------------------------------------


===================
アクセス層の基本
===================


======================================
1.　レイヤー１の役割
======================================
・　レイヤー１では実際の信号の伝送を扱っている。

用語
======

------------------------
bps(bit per second)
------------------------
１秒間にどれだけのデータを伝えるか。

------------------------
減衰
------------------------
電装距離が長いと信号が弱まってしまうこと

------------------------
信号の変形
------------------------
ケーブルや熱源、電源、無線機器など電気信号に干渉する機器によって信号の形が変化してしまうこと。
シールドのついたSTPケーブルを使うことである程度防げる

------------------------
衝突（collision）
------------------------
すでに信号が流れている回線上に、別の信号が流れることで発生する。信号の形が混ざって崩れる。
無線においても同様に発生する。
>>衝突を避けるには、同時に送信しないようにする or 送信と受信の回線を分ける必要がある



======================================
2.　ハブの役割
======================================

用語
======

------------------------
ポイントツーポイント
------------------------
2つの機器を直接ケーブルでつなげること

------------------------
マルチポイント
------------------------
複数の機器を分岐したケーブルでつなげる。

------------------------
ハブ
------------------------
複数の機器をつなぐための機器
**主な機能**
1.フラッディング >> ケーブルから流れてきた信号をすべての危機に流す
2.リピータ機能 >> 減衰した信号を元に戻す　

**問題点**　
ハブにつながっている機器同士が同時に通信するとコリジョンが発生する。


------------------------
コリジョンドメイン
------------------------
同じハブにつながっている機器の範囲のこと

------------------------
共有メディア環境
------------------------
一本のケーブルを複数の機器が使っている状態



======================================
3.　無線LANによる接続
======================================

用語
======

------------------------
アドホックモード
------------------------
無線の子機同士を１対１でつなぐ接続方法

------------------------
インフラストラクチャーモード
------------------------
無線の子機をアクセスポイントを経由してつなぐ接続方法


------------------------
チャンネル
------------------------
無線LANで使用する周波数帯のこと。（無線の規格により使用する帯域が異なる）
11~14ぐらいに分割して使っている。
異なるチャンネルを使用するAPと子機は信号をやり取りできない。
チャンネルは重なりあって分割されているため、近いチャンネルを利用すると電波干渉を起こす

------------------------
電波強度
------------------------
電波は距離が離れると減衰する。
APと子機の距離によってデータ転送速度が変わる。
離れれば離れるほど速度は低下する。





======================================
4.　レイヤー2の役割
======================================

レイヤー2 >> レイヤー1で届いたor届けた信号を制御する
==========================================================

1.信号の方向付け
----------------------------
フレーミング　→　データにヘッダーとトレーラーを付加する

2.信号の衝突の回避
----------------------------



用語
======

------------------------
セグメント
------------------------
レイヤー2による制御範囲（信号が届く範囲のこと）
セグメントを超えてデータを伝送するにはルーターが必要

------------------------
現在LANで使用されているプロトコル（規格）
------------------------
有線 >> イーサネット(ethernet)
無線 >> IEEE802.11






======================================
6.　レイヤー2　データを宛先へ届ける
======================================

用語
======

------------------------
フレーミング
------------------------
フレームに宛先を特定するためのMACアドレスを付加する

------------------------
MACアドレス
------------------------
機器を特定するための48ビットの数値。16進数表記
先頭の24ビットはメーカー番号(OUI)
後ろの24ビットは製品のシリアル番号


------------------------
キャスト
------------------------
データの送信方式



データの送信と受信
==================
アドレスを付加したフレームは信号の届く範囲にある全機器に送信される。
受信した機器はアドレスを確認し、自分のものであったら受信処理を実行する、そうでなかったら破棄する。


データの伝送方式
==================

1.ユニキャスト[アドレス]
------------------------
特定の1台が宛先となる通信・アドレス


2.マルチキャスト[アドレス]
------------------------
特定のグループに所属する複数台が宛先となる通信・アドレス



3.ブロードキャスト[アドレス]
------------------------
送信元と同じセグメントの全ホストが対象となる通信・アドレス
送信元と同じセグメント >> ローカルブロードキャスト
送信元と異なるセグメント >> ダイレクトブロードキャスト



4.エニーキャスト[アドレス]
------------------------
同じアドレスを持つ任意の一大が宛先となる通信・アドレス




======================================
7.　レイヤー2　フレーミングについて
======================================

用語
======

------------------------
フレーミング
------------------------
フレームに宛先を特定するためのMACアドレスを付加する

------------------------
フレームフォーマット
------------------------
MACアドレスや、データタイプなどの情報が付加されたフレームのこと。
ヘッダ、トレーラ、ペイロード（データ本体）、プリアンプル（物理ヘッダ）で構成される。


------------------------
プリアンプル
------------------------
イーサネットフレームの始まりを示す特別なビット列（フレーム長には含まれない）


------------------------
トレーラー
------------------------
フレーム全体のエラーチェック用データ（FCS）で構成される。

------------------------
ヘッダ
------------------------
宛先のMACアドレス、送信元のMACアドレス、データタイプで構成される
無線の場合、上記の他にBSSIDや無線LAN制御用データを入れる場所がある。





======================================
7.　レイヤー2　衝突の防止について
======================================


CSMA/CD
=========
有線LANで用いられる衝突防止の仕組み。
キャリア探知(Carrier Sence)と多重アクセス(Multiple Access)を組み合わせた言葉
CDは「衝突検出」の意味

自身が送信中に他からデータを受信した時に「衝突」が発生したとみなす。
衝突が発生したら、ランダムな時間待機し再度送信する。（最大15回まで）

現在有線LANで使用されるケーブルは送信と受信が完全にわけられているため、ケーブル内で衝突が起こることはない。



CSMA/CA with RTS/CTS
==================
無線LANで用いられる衝突防止の仕組み。
CAは「衝突回避」の意味

APに対して送信要求(RTS)を行う
↓
APはセグメントの全機器に対して送信許可(CTS)を送る
↓
CTSを受け取った自身の機器は送信を開始。
CTSを受け取ったその他の機器は送信を待機する。

無線LANでは1つの機器しか送信できないため、つなぐ機器が多いほど送信可能なデータ量は下がる




======================================
8.　レイヤー2　L2スイッチについて
======================================


用語
=========
------------------------
フラッディング
------------------------
全ポートに信号を流すこと

------------------------
全2重通信
------------------------
送受信が同時に自由に行える通信方式
L2スイッチを用いた全二重イーサネット


------------------------
半2重通信
------------------------
トランシーバーの様に送受信が同時に行えない通信方式
CSMA/CD方式





L2スイッチ
=========

別名：スイッチングハブ、イーサスイッチ
役割：MACアドレスフィルタリング、バッファリング

L2スイッチで繋がれた機器同士はコリジョンドメインにならない

------------------------
MACアドレスフィルタリング
------------------------
L2スイッチは「機器のMACアドレス」と「受信ポート」の対応を記憶している。(MACアドレステーブル)
そのためL2スイッチは、宛先のMACアドレスと対応しているポートにのみフレームを流す。

但し、宛先がブロードキャストアドレス、マルチキャストアドレス、未知のMACアドレスの場合は全ポートに信号を流す。(フラッディング)


------------------------
バッファリング
------------------------
同じアドレス宛に複数の機器から同時に送信が行われた場合に、一時的にフレームを記憶領域に退避させる機能




======================================
9.　レイヤー2　無線LANのグループ化
======================================


用語
=========
------------------------
BSSID
------------------------
アクセスポイントを特定する値。
48ビットの値。APのMACアドレスがそのまま使用される。

------------------------
SSID
------------------------
APと機器をグループ化する値。
APと子機のSSIDが同一であれば通信できる。


------------------------
ローミング
------------------------
複数のAPに同一のSSIDを設定し、子機が移動しても接続するAPを自動で変更できるようにすること。


------------------------
ESSID
------------------------
複数のAPをグループ化する際に使用する。
現在ではESSIDを使用するのが一般的で、SSIDといえば、ESSIDを指す。




L2スイッチ
=========

別名：スイッチングハブ、イーサスイッチ
役割：MACアドレスフィルタリング、バッファリング

L2スイッチで繋がれた機器同士はコリジョンドメインにならない

------------------------
MACアドレスフィルタリング
------------------------
L2スイッチは「機器のMACアドレス」と「受信ポート」の対応を記憶している。(MACアドレステーブル)
そのためL2スイッチは、宛先のMACアドレスと対応しているポートにのみフレームを流す。

但し、宛先がブロードキャストアドレス、マルチキャストアドレス、未知のMACアドレスの場合は全ポートに信号を流す。(フラッディング)


------------------------
バッファリング
------------------------
同じアドレス宛に複数の機器から同時に送信が行われた場合に、一時的にフレームを記憶領域に退避させる機能




------------------------------------------------------------------------------------------------------------------------------------------

==============================
インターネット層の基本
==============================


==============================
レイヤー3の役割
==============================

用語
===========

--------------------
ブロードキャストドメイン
--------------------
L2スイッチで接続され、ルーターで区切られた範囲
つまり...
レイヤー1→ブロードキャストドメイン内で信号の伝送を担う
レイヤー2→ブロードキャストドメイン内で伝送の制御を行っている。


--------------------
インターネットワーク
--------------------
ネットワークとネットワーク間でのデータの伝送

TCP/IPプロトコルにおいて、ネットワークから別のネットワークにデータを転送するのに必要なのが「IPアドレス」と「ルーティング」




レイヤー3の役割
======================
ブロードキャストドメインから別のブロードキャストドメインへデータを伝える





==============================
IPアドレスとは
==============================

用語
===========

--------------------
IPアドレス
--------------------
インターネットワーク内でホストの属するネットワークを特定するためのもの
32ビットの数値で表される
先頭の24ビットがネットワーク番号
後ろの24ビットがホスト番号



--------------------
ICANN
--------------------
IPアドレスが重複しないように管理している団体

----------------
IANA
----------------
ICANNの下部組織
実際のIPアドレスの管理組織





==============================
サブネットとサブネットマスク
==============================

用語
===========

--------------------
サブネットワーク
--------------------
ネットワークを更に小さなネットワークに分割した時の、この小さなネットワークのこと
サブネットとサブネットの境界はルーターが担う


--------------------
サブネット番号
--------------------
サブネットを識別するための番号
ホスト部のビットのうち先頭の任意のビットをサブネット部としてサブネット番号にする。

----------------
サブネットマスク
----------------
サブネット部が何ビットかを示すためにIPアドレスに併記する値
255.255.255.0

----------------
プレフィックス長
----------------
サブネット部が何ビットかを示すためにIPアドレスに併記する値
192.168.102.1/24




==============================
IPアドレスの種類
==============================

用語
===========

--------------------
ネットワークアドレス
--------------------
そのネットワーク番号を持つネットワーク全体を指す
ホスト部のビットが全て0のアドレス
192.168.102.0/24


--------------------
ブロードキャストアドレス
--------------------
ネットワークに属する全機器あての通信で使うアドレス。
ホスト部のビットが全て1
192.168.102.255/24

----------------
0.0.0.0/8
----------------
すべてのネットワークを指す

----------------
ループバックアドレス
----------------
ホスト自身を指定するときに使用される。
127.0.0.0/8


----------------
224.0.0.0/8~239.0.0.0/8
----------------
マルチキャストアドレス

----------------
240.0.0.0/8~255.0.0.0/8
----------------
研究用アドレス


----------------
ローカルブロードキャストアドレス
----------------
ネットワーク内の全ホストにデータを送信
255.255.255.255/32


----------------
グローバルIP
----------------
インターネットで使用するためのIPアドレス。
IANAによって管理される。

----------------
プライベートIP
----------------
インターネットに接続していない状態のLANの内部だけで使用される。
基本的にどんなIPを設定してもOK
基本は
10.0.0.0/8
172.16.0.0/12
192.168.0.0/16





================================
ルーティングについて
================================


用語
==========

------------------------------
ルーティング
------------------------------
宛先に到達するために次のルーターを決定すること。

インターフェイスにパケットが到着
↓
宛先のIPを確認
↓
ネクスト・ホップと送信するインターフェースを決定


------------------------------
ホップ・バイ・ホップ方式
------------------------------
ルーターが次のルーターを決めることを繰り返すことで、最終的な宛先までデータを届ける経路選択方式


------------------------------
ネクスト・ホップ
------------------------------
次のルーター

------------------------------
フォワーディング
------------------------------
ルーターがインターフェースからパケットを送信すること

------------------------------
ルーティングテーブル
------------------------------
宛先のIPアドレス、ネクスト・ホップ、ポート（送信するインターフェース）が登録されている。
ルーターはルーティングテーブルからネクスト・ホップと送信インターフェースを決める。

※ルーティングテーブルに宛先のIPアドレスが存在しなければ送信不可となり、PDUは破棄される。
※データを宛先まで届けるには、常にルーティングテーブルを更新し、最新の状態にしておく必要がある。

============== ============== ============================ ========================
宛先           次ルーター       送信インターフェース            メトリック(経路の評価値)
============== ============== ============================ ========================
1.0.0.0/8      ルーターX       3番                          5
-------------- -------------- ---------------------------- ------------------------
2.0.0.0/12     ルーターy       2番                          3
-------------- -------------- ---------------------------- ------------------------



ルーティングテーブルの更新
===============================
1.スタティック
管理者が入力して手動作成・更新する
2.ダイナミック
ルーター間で経路情報をやりとりして自動作成・更新する。






================================
デフォルトルートと経路集約
================================


用語
==========

------------------------------
インターネットフルルート
------------------------------
インターネットのすべてのネットワークへの経路
※すべてのホストやルーターがフルルートを保持するのは更新・経路探索コストから現実的ではない。


------------------------------
デフォルトルート
------------------------------
特に経路が決まっていない時に使用される経路。
LAN内に宛先がないときは必ず、自身のルーターとISPにつながるルーターを通過する。
このようなときルーターはデフォルトルートを使用する。
0.0.0.0/0（全ネットワークを意味し、他に当てはまる経路がないときに使用する経路。

============== ============== ============================ ========================
宛先           次ルーター       送信インターフェース            メトリック(経路の評価値)
============== ============== ============================ ========================
0.0.0.0/0      ルーターX       1番                          -
-------------- -------------- ---------------------------- ------------------------

上記のように設定することで、ISPへつながるルーターをネクスト・ホップとするルートをデフォルトルートに設定できる。


------------------------------
デフォルトゲートウェイ
------------------------------
ホストがパソコンの場合、デフォルトルートのネットワークの出口となるルーターのこと。
ホストは、LAN内のホストと通信するときは、そのまま送信し、LAN外のホストと通信するときは、デフォルトゲートウェイに送信する。


------------------------------
経路集約
------------------------------
複数のネットワークへの経路をまとめて、1つの経路とする技術。
一つの経路にまとめられるのは「IPアドレスが一定の範囲にある」or「ネクスト・ホップと送信インターフェースが同一である」という条件を満たすネットワーク郡。


例）
192.168.32.0/24~192.168.39.0/24の8つのネットワークを集約する。

21ビット目までの値が同じIPはすべて1番ポートからルーターXに送られる。
============================　============== ============================ ========================
IPアドレス/プレフィックス長       次ルーター       送信インターフェース            メトリック(経路の評価値)
============================ ==============　============================ ========================
192.168.32.0/21              ルーターX       1番                          -
---------------------------- -------------- ---------------------------- ------------------------


------------------------------
ロンゲストマッチ
------------------------------
宛先IPアドレスから一致する経路を探す際に用いられるルール

プレフィックス長まで一致していて、最もプレフィックス長が長い経路を選択する。
このルールのおかげで「集約経路」と「個別経路」の2種類を使い分けることができる。

例）
宛先192.168.16.5
============================　============== =================== ========================
IPアドレス/プレフィックス長       次ルーター       送信インターフェース   メトリック(経路の評価値)
============================ ==============　=================== ========================
192.168.0.0/16               192.168.1.1    0番                 -                       プレフィックス長16ビットまで一致
---------------------------- -------------- ------------------- ------------------------
192.168.16.0/24              192.168.2.1    1番                 -                       ★プレフィックス長24ビットまで一致
---------------------------- -------------- ------------------- ------------------------
192.168.18.0/24              192.168.3.1    2番                 -                       プレフィックス超の24ビットまで一致せず
---------------------------- -------------- ------------------- ------------------------







================================
ルーティングプロトコル
================================


用語
==========

------------------------------
ルーティング・プロトコル
------------------------------
ルーティングテーブルの更新のために、ルーター間での情報交換に使用されるプロトコル。
管理するルーターの数が多い時に使用する。

BGP(Border Gateway Protocol)→AS同士で膨大な情報をやり取りする場合
OSP(Open Shortest Path First),RIP(Routing Informaation Protocol)→AS内部や小〜中規模ネットワークで使用される。

ルーティング・プロトコルを使用するためには、情報をやり取りする全ルーターについてルーティング・プロトコルを使用可能にする必要がある。


------------------------------
コンバージェン
------------------------------
全ルーターが最新の正しい情報を持っている状態


------------------------------
コンバージェンタイム
------------------------------
ルーターをコンバージェンスにするまでの時間。
これが短いプロトコルほど優秀。










================================
宛先のMACアドレスを入手する。(ARP)
================================


用語
==========

------------------------------
ARP(Address Resolution Protool)
------------------------------
レイヤー3において宛先のMACアドレスを取得するためのプロトコル。
実際にはレイヤー3(IP)と2(MACアドレス)をつなぐ役割を担う。


------------------------------
ARPキャッシュ（ARPテーブル）
------------------------------
ホスト（PCやルーター）が持つIPアドレスとMACアドレスの対応表。
手動で入力することも、動的に取得することもできる。
但し対応情報を記憶する期間は一時的で、一定時間後にクリアされる。（インターフェースの故障や、ARP応答の偽装によるなりすましを防ぐため。）


------------------------------
ARP要求
------------------------------
ARPテーブルにIPアドレスと対応するMACアドレスが存在しない場合、セグメント内の全機器に対して送信する(ブロードキャスト)。
要求の内容は、「MACアドレスを知りたいIPアドレス」が記入されたARPメッセージを含むデータ


------------------------------
ARP応答
------------------------------
ARP要求を送信したホストにIPとMACアドレスの対応を知らせるための応答。
ARP要求受信ホストのIPとARP要求のIPが同一のホストが返す。

------------------------------
ARPキャッシュポイゾニング
------------------------------
ARP応答の偽造によるネットワーク攻撃
パケットを届かなくさせたり、別のPCに誘導したりする。



宛先に対応したMACアドレスの入手
===============================

------------------------------
ネットワーク内での実際の伝送
------------------------------

1.ルーター
-------------
レイヤー1→信号の伝送
↓
レイヤー2→自分のMACアドレス宛てのフレームを受信
↓
レイヤー3→ルーティング、カプセル化（ヘッダにIPをセット）
↓
レイヤー2→フレーミング（宛先・送信元のMACアドレスを取得）　　★宛先のMACアドレスをどうやって取得するか。
↓
レイヤー1→信号の伝送
↓


------------------------------
フレーミング時のMACアドレスの指定と取得
------------------------------
宛先がセグメント内→宛先のMACアドレスを指定
宛先がセグメント外→デフォルトゲートウェイに設定されているMACアドレスを指定

宛先IPアドレスに対応したMACアドレスを入手するためにレイヤー3では**ARP(Address Resolution Protool)**を使用する。



MACアドレスの決定
===============================
送信ホスト：ARPテーブルに「宛先IPアドレスに対応するMACアドレス」があるかを確認。
↓
送信ホスト：MACアドレスが存在すればそれを使用。
or
送信ホスト：なければARP要求を送信
↓
受信ホスト：ARP要求を受け取ったホストはARP要求のIPが自身のIPと一致する場合は、ARP応答を送信ホストに返信
↓
送信ホスト：ARP応答の内容をARPテーブルに反映
↓
送信ホスト：更新されたARPテーブルを使ってMACアドレスを使用




================================
VLANネットワーク
================================


用語
==========

------------------------------
VLAN
------------------------------
L2スイッチによって仮想的にネットワークを分割する技術。
ルーターを使わずにネットワークを分割できるのが魅力


------------------------------
ポートベースVLAN
------------------------------
つなげたポートによってホストの所属するネットワークが決まる
L2スイッチはVLANをVLAN IDによって管理し、ポートそれぞれにVLAN IDを設定することでネットワークを分割する。
VLAN上でL2スイッチが受信したパケットは、同一のVLAN番号が設定されているポートだけから送信される。



------------------------------
タグVLAN
------------------------------
複数のL2スイッチのカスケードでVLANを構成する場合、L2スイッチ間でやり取りするフレームがどのVLANに属するのかを判断しなければいけない時に用いる。
通常イーサネットのIEEE802.11フレームにはVLAN番号を明示する部分がないので、IEEE802.1qという規格を使用してVLAN番号をフレームに差し込む。
VLAN番号などの差し込む情報はタグと呼ばれる。




------------------------------
L3スイッチ
------------------------------
VLAN対応L2スイッチにルーター機能を組み込んだネットワーク機器。
L3スイッチもL2スイッチと同様に多くのポートを持ちそれぞれにVLAN番号を設定することができる。
L3スイッチでVLANを構築することにより、VLAN間でのPDUのルーティングやフォワーディングが可能になる。










